%YAML 1.1
%TAG !u! tag:unity3d.com,2011:
--- !u!1045 &1
EditorBuildSettings:
  m_ObjectHideFlags: 0
  serializedVersion: 2
  m_Scenes:
  - enabled: 1
    path: Assets/Scenes/MainMenu.unity
    guid: fd3a1de1bf6dde2499631c42b0968b3d
  - enabled: 1
    path: Assets/Scenes/MainScene.unity
    guid: 2cda990e2423bbf4892e6590ba056729
  m_configObjects: {}
